<?xml version="1.0" encoding="UTF-8"?>
<svg width="131px" height="131px" viewBox="0 0 131 131" version="1.1" xmlns="http://www.w3.org/2000/svg" xmlns:xlink="http://www.w3.org/1999/xlink">
    <!-- Generator: Sketch 52.5 (67469) - http://www.bohemiancoding.com/sketch -->
    <title>Group 2 Copy</title>
    <desc>Created with Sketch.</desc>
    <g id="Page-1" stroke="none" stroke-width="1" fill="none" fill-rule="evenodd">
        <g id="Group-2-Copy">
            <rect id="Rectangle" fill="#FFFFFF" x="0" y="0" width="131" height="131"></rect>
            <g id="ProjectAthena-03-(1)-Copy-2" transform="translate(4.000000, 4.000000)" fill-rule="nonzero">
                <g id="Group" transform="translate(15.000000, 20.000000)" fill="#E3BF23" stroke="#DFBC39">
                    <path d="M5.72236504,44.1 L5.72236504,84 L0,84 L0,0 L16.7352185,0 C30.8791774,0 42,7.56 42,21.945 C42,35.91 31.7429306,44.1 16.8431877,44.1 L5.72236504,44.1 Z M6,39 L17.316726,39 C28.4199288,39 36,32.5987654 36,22 C36,11.5061728 28.8469751,5 16.4626335,5 L6.10676157,5 L6.10676157,39 L6,39 Z" id="Shape"></path>
                </g>
                <g id="Group" transform="translate(46.000000, 21.000000)" fill="#3E8ACA" stroke="#4D8DC7">
                    <path d="M51.431988,55.8276699 L16.7713004,55.8276699 L5.89536622,82 L0,82 L34.2541106,0 L68,82 L62.1046338,82 L51.431988,55.8276699 Z M49.3991031,51.0509709 L34.1524664,13.3349515 L18.7025411,51.0509709 L49.3991031,51.0509709 Z" id="Shape"></path>
                </g>
                <path d="M1.25,1.25 L1.25,121.75 L121.75,121.75 L121.75,1.25 L1.25,1.25 Z M122.25,0.75 L122.25,122.25 L0.75,122.25 L0.75,0.75 L122.25,0.75 Z" id="Rectangle" stroke="#4D8DC7" stroke-width="5" fill="#3E8ACA"></path>
            </g>
        </g>
    </g>
</svg>